…
I focus on cases where the journalist was not covering war.

``` r
d %>%
    filter(War == "Was not covering war") %>%
    group_by(Country_killed, Year) %>%
    dplyr::count() %>%
    arrange(desc(n)) %>%
    mutate(r = dplyr::min_rank(-n)) %>%
    filter(r <= 10) %>%
    dplyr::rename(Count = n) %>%
    select(-r)
```

    ## # A tibble: 516 x 3
    ## # Groups:   Country_killed, Year [516]
    ##    Country_killed  Year Count
    ##            <fctr> <dbl> <int>
    ##  1    Philippines  2009    38
    ##  2           Iraq  2007    32
    ##  3           Iraq  2006    25
    ##  4           Iraq  2004    21
    ##  5         Rwanda  1994    20
    ##  6        Algeria  1995    19
    ##  7        Algeria  1994    12
    ##  8     Tajikistan  1993    12
    ##  9    Philippines  2004    11
    ## 10        Somalia  2012    11
    ## # ... with 506 more rows
…
